<?xml version="1.0" encoding="UTF-8" standalone="no"?>
<!-- Created with Inkscape (http://www.inkscape.org/) -->

<svg
   xmlns:dc="http://purl.org/dc/elements/1.1/"
   xmlns:cc="http://creativecommons.org/ns#"
   xmlns:rdf="http://www.w3.org/1999/02/22-rdf-syntax-ns#"
   xmlns:svg="http://www.w3.org/2000/svg"
   xmlns="http://www.w3.org/2000/svg"
   xmlns:sodipodi="http://sodipodi.sourceforge.net/DTD/sodipodi-0.dtd"
   xmlns:inkscape="http://www.inkscape.org/namespaces/inkscape"
   width="202.99312mm"
   height="89.866959mm"
   viewBox="0 0 202.99312 89.866959"
   version="1.1"
   id="svg2226"
   inkscape:version="0.92.3 (2405546, 2018-03-11)"
   sodipodi:docname="drawing.svg">
  <defs
     id="defs2220" />
  <sodipodi:namedview
     id="base"
     pagecolor="#ffffff"
     bordercolor="#666666"
     borderopacity="1.0"
     inkscape:pageopacity="0.0"
     inkscape:pageshadow="2"
     inkscape:zoom="1.979899"
     inkscape:cx="371.22578"
     inkscape:cy="124.58074"
     inkscape:document-units="mm"
     inkscape:current-layer="layer1"
     showgrid="false"
     inkscape:window-width="1596"
     inkscape:window-height="856"
     inkscape:window-x="0"
     inkscape:window-y="20"
     inkscape:window-maximized="0"
     fit-margin-top="5"
     fit-margin-left="5"
     fit-margin-right="5"
     fit-margin-bottom="5" />
  <metadata
     id="metadata2223">
    <rdf:RDF>
      <cc:Work
         rdf:about="">
        <dc:format>image/svg+xml</dc:format>
        <dc:type
           rdf:resource="http://purl.org/dc/dcmitype/StillImage" />
        <dc:title></dc:title>
      </cc:Work>
    </rdf:RDF>
  </metadata>
  <g
     inkscape:label="Layer 1"
     inkscape:groupmode="layer"
     id="layer1"
     transform="translate(-2.4204897,-3.5185316)">
    <g
       id="g1566"
       transform="matrix(0.26458333,0,0,0.26458333,4.0852446,-176.79115)"
       style="stroke:#ff0000">
      <path
         sodipodi:nodetypes="cc"
         id="path2742"
         d="m 371,899.41665 v 14"
         style="fill:none;stroke:#ff0000;stroke-width:3.5;stroke-linecap:round;stroke-linejoin:miter;stroke-miterlimit:4;stroke-dasharray:none;stroke-opacity:1"
         inkscape:connector-curvature="0" />
      <path
         sodipodi:nodetypes="cc"
         id="path2744"
         d="m 371,920.41665 v 14"
         style="fill:none;stroke:#ff0000;stroke-width:3.5;stroke-linecap:round;stroke-linejoin:miter;stroke-miterlimit:4;stroke-dasharray:none;stroke-opacity:1"
         inkscape:connector-curvature="0" />
      <path
         inkscape:connector-curvature="0"
         id="path2746"
         d="m 384.99999,913.41665 h -28"
         style="display:inline;fill:none;stroke:#ff0000;stroke-width:3.5;stroke-linecap:square;stroke-linejoin:miter;stroke-miterlimit:4;stroke-dasharray:none;stroke-opacity:1"
         sodipodi:nodetypes="cc" />
      <path
         inkscape:connector-curvature="0"
         id="path2748"
         d="m 384.99999,923.91665 c -1.7717,-2.24988 -3.45666,-3.5 -7,-3.5 h -14 c -3.54328,0 -5.22838,1.25012 -7,3.5"
         style="display:inline;fill:none;stroke:#ff0000;stroke-width:3.5;stroke-linecap:square;stroke-linejoin:round;stroke-miterlimit:4;stroke-dasharray:none;stroke-opacity:1"
         sodipodi:nodetypes="cssc" />
      <path
         sodipodi:nodetypes="cc"
         id="path2752"
         d="M 388.5,902.91665 H 378"
         style="fill:none;stroke:#ff0000;stroke-width:2.00000191px;stroke-linecap:butt;stroke-linejoin:miter;stroke-opacity:1"
         inkscape:connector-curvature="0" />
      <path
         sodipodi:nodetypes="cc"
         id="path2754"
         d="m 383.25,908.16665 v -10.5"
         style="fill:none;stroke:#ff0000;stroke-width:2.00000191px;stroke-linecap:butt;stroke-linejoin:miter;stroke-opacity:1"
         inkscape:connector-curvature="0" />
    </g>
    <path
       style="fill:none;fill-opacity:1;stroke:#ff0000;stroke-width:1;stroke-linecap:square;stroke-linejoin:bevel;stroke-miterlimit:4;stroke-dasharray:none;stroke-dashoffset:0"
       d="m 84.071329,53.96323 h 18.174331 v 7.216277"
       id="path3272"
       inkscape:connector-curvature="0" />
    <path
       style="fill:none;fill-opacity:1;stroke:#ff0000;stroke-width:1;stroke-linecap:square;stroke-linejoin:bevel;stroke-miterlimit:4;stroke-dasharray:none;stroke-dashoffset:0"
       d="M 102.24566,70.439919 V 80.02201"
       id="path3274"
       inkscape:connector-curvature="0" />
    <path
       style="fill:none;fill-opacity:1;stroke:#000000;stroke-width:1;stroke-linecap:square;stroke-linejoin:bevel;stroke-miterlimit:4;stroke-dasharray:none;stroke-dashoffset:0"
       d="M 18.770458,10.500497 H 83.758194"
       id="path2771"
       inkscape:connector-curvature="0"
       sodipodi:nodetypes="cc" />
    <path
       style="fill:none;fill-opacity:1;stroke:#000000;stroke-width:1;stroke-linecap:square;stroke-linejoin:bevel;stroke-miterlimit:4;stroke-dasharray:none;stroke-dashoffset:0"
       d="M 18.532914,80.514137 H 156.28107"
       id="path2771-3"
       inkscape:connector-curvature="0"
       sodipodi:nodetypes="cc" />
    <text
       xml:space="preserve"
       style="font-style:normal;font-weight:normal;font-size:5.90573549px;line-height:1.67406678px;font-family:sans-serif;letter-spacing:0px;word-spacing:0px;fill:#000000;fill-opacity:1;stroke:none;stroke-width:0.44293016px;stroke-linecap:butt;stroke-linejoin:miter;stroke-opacity:1"
       x="7.3368635"
       y="12.774814"
       id="text2790"><tspan
         sodipodi:role="line"
         id="tspan2788"
         x="7.3368635"
         y="12.774814"
         style="stroke-width:0.44293016px">Vin</tspan></text>
    <g
       id="g2396"
       transform="matrix(0.26458333,0,0,0.26458333,-31.985825,30.968818)">
      <path
         inkscape:connector-curvature="0"
         id="path3980"
         d="m 211.93697,201.2579 h -42"
         style="display:inline;fill:none;stroke:#000000;stroke-width:3.5;stroke-linecap:square;stroke-linejoin:miter;stroke-miterlimit:4;stroke-dasharray:none;stroke-opacity:1"
         sodipodi:nodetypes="cc" />
      <path
         inkscape:connector-curvature="0"
         id="path3984"
         d="m 190.93697,187.2579 v 14"
         style="display:inline;fill:none;stroke:#000000;stroke-width:3.5;stroke-linecap:round;stroke-linejoin:miter;stroke-miterlimit:4;stroke-dasharray:none;stroke-opacity:1"
         sodipodi:nodetypes="cc" />
      <path
         inkscape:connector-curvature="0"
         id="path3994"
         d="m 204.93697,208.2579 h -28"
         style="display:inline;fill:none;stroke:#000000;stroke-width:3.5;stroke-linecap:square;stroke-linejoin:miter;stroke-miterlimit:4;stroke-dasharray:none;stroke-opacity:1"
         sodipodi:nodetypes="cc" />
      <path
         inkscape:connector-curvature="0"
         id="path3996"
         d="m 197.93697,215.2579 h -14"
         style="display:inline;fill:none;stroke:#000000;stroke-width:3.5;stroke-linecap:square;stroke-linejoin:miter;stroke-miterlimit:4;stroke-dasharray:none;stroke-opacity:1"
         sodipodi:nodetypes="cc" />
    </g>
    <path
       id="path3970"
       style="fill:none;stroke:#000000;stroke-width:0.92604166;stroke-linecap:round;stroke-linejoin:bevel;stroke-miterlimit:4;stroke-dasharray:none;stroke-opacity:1"
       d="m 32.69494,27.710862 v -2.778125 l 1.852084,-0.926041 -3.704167,-1.852084 3.704167,-1.852083 -3.704167,-1.852083 3.704167,-1.852083 -3.704167,-1.852084 1.852083,-0.926041 v -2.778125"
       inkscape:connector-curvature="0"
       sodipodi:nodetypes="cccccccccc" />
    <g
       id="g2198"
       transform="matrix(0.26458333,0,0,0.26458333,-187.70297,-95.430625)"
       inkscape:transform-center-x="-11.146913"
       inkscape:transform-center-y="-4.9136905">
      <path
         style="display:inline;fill:none;stroke:#000000;stroke-width:3.5;stroke-linecap:round;stroke-linejoin:miter;stroke-miterlimit:4;stroke-dasharray:none;stroke-opacity:1"
         d="m 833,465.41665 v 21"
         id="path2064"
         inkscape:connector-curvature="0"
         sodipodi:nodetypes="cc" />
      <path
         style="display:inline;fill:none;stroke:#000000;stroke-width:3.5;stroke-linecap:round;stroke-linejoin:miter;stroke-miterlimit:4;stroke-dasharray:none;stroke-opacity:1"
         d="m 833,514.41667 v 13.99998"
         id="path2066"
         inkscape:connector-curvature="0"
         sodipodi:nodetypes="cc" />
      <path
         style="display:inline;fill:none;stroke:#000000;stroke-width:3.5;stroke-linecap:square;stroke-miterlimit:4;stroke-dasharray:none;stroke-dashoffset:0;stroke-opacity:1"
         d="m 833,514.41665 -14,-28 h 28 z"
         id="path2068"
         inkscape:connector-curvature="0"
         sodipodi:nodetypes="cccc" />
      <path
         style="display:inline;fill:none;stroke:#000000;stroke-width:3.5;stroke-linecap:square;stroke-linejoin:miter;stroke-miterlimit:4;stroke-dasharray:none;stroke-opacity:1"
         d="M 847,514.41665 H 819"
         id="path2070"
         inkscape:connector-curvature="0"
         sodipodi:nodetypes="cc" />
      <path
         style="opacity:1;fill:#000000;fill-opacity:1;fill-rule:nonzero;stroke:none;stroke-width:3.5;stroke-linecap:round;stroke-linejoin:round;stroke-miterlimit:4;stroke-dasharray:none;stroke-dashoffset:0;stroke-opacity:1"
         d="m 855.75,469.79165 7,5.25 1.75,-9.625 z"
         id="path2076"
         inkscape:connector-curvature="0"
         sodipodi:nodetypes="cccc" />
      <path
         inkscape:connector-curvature="0"
         id="path2078"
         d="m 859.25,472.41665 -5.25,7"
         style="opacity:1;fill:none;fill-opacity:1;fill-rule:nonzero;stroke:#000000;stroke-width:3.5;stroke-linecap:square;stroke-linejoin:round;stroke-miterlimit:4;stroke-dasharray:none;stroke-dashoffset:0;stroke-opacity:1" />
      <path
         sodipodi:nodetypes="cccc"
         inkscape:connector-curvature="0"
         id="path2080"
         d="m 859.25,483.79165 7,5.25 1.75,-9.625 z"
         style="opacity:1;fill:#000000;fill-opacity:1;fill-rule:nonzero;stroke:none;stroke-width:3.5;stroke-linecap:round;stroke-linejoin:round;stroke-miterlimit:4;stroke-dasharray:none;stroke-dashoffset:0;stroke-opacity:1" />
      <path
         style="opacity:1;fill:none;fill-opacity:1;fill-rule:nonzero;stroke:#000000;stroke-width:3.5;stroke-linecap:square;stroke-linejoin:round;stroke-miterlimit:4;stroke-dasharray:none;stroke-dashoffset:0;stroke-opacity:1"
         d="m 862.75,486.41665 -5.25,7"
         id="path2082"
         inkscape:connector-curvature="0" />
    </g>
    <path
       style="fill:none;fill-opacity:1;stroke:#000000;stroke-width:1;stroke-linecap:square;stroke-linejoin:bevel;stroke-miterlimit:4;stroke-dasharray:none;stroke-dashoffset:0"
       d="M 32.694943,44.379612 V 80.136159"
       id="path2886"
       inkscape:connector-curvature="0"
       sodipodi:nodetypes="cc" />
    <text
       xml:space="preserve"
       style="font-style:normal;font-weight:normal;font-size:3.52777767px;line-height:1px;font-family:sans-serif;letter-spacing:0px;word-spacing:0px;fill:#000000;fill-opacity:1;stroke:none;stroke-width:0.26458332px;stroke-linecap:butt;stroke-linejoin:miter;stroke-opacity:1"
       x="35.907738"
       y="20.888391"
       id="text2890"><tspan
         sodipodi:role="line"
         id="tspan2888"
         x="35.907738"
         y="20.888391"
         style="stroke-width:0.26458332px">470</tspan></text>
    <g
       id="g1579"
       transform="matrix(0.26458333,0,0,0.26458333,-35.113984,-212.26306)">
      <path
         sodipodi:nodetypes="cc"
         id="path2791"
         d="m 322,899.41665 v 14"
         style="fill:none;stroke:#000000;stroke-width:3.5;stroke-linecap:round;stroke-linejoin:miter;stroke-miterlimit:4;stroke-dasharray:none;stroke-opacity:1"
         inkscape:connector-curvature="0" />
      <path
         sodipodi:nodetypes="cc"
         id="path2793"
         d="m 322,920.41665 v 14"
         style="fill:none;stroke:#000000;stroke-width:3.5;stroke-linecap:round;stroke-linejoin:miter;stroke-miterlimit:4;stroke-dasharray:none;stroke-opacity:1"
         inkscape:connector-curvature="0" />
      <path
         inkscape:connector-curvature="0"
         id="path2795"
         d="m 335.99999,913.41665 h -28"
         style="fill:none;stroke:#000000;stroke-width:3.5;stroke-linecap:square;stroke-linejoin:miter;stroke-miterlimit:4;stroke-dasharray:none;stroke-opacity:1"
         sodipodi:nodetypes="cc" />
      <path
         inkscape:connector-curvature="0"
         id="path2797"
         d="m 335.99999,920.41665 h -28"
         style="fill:none;stroke:#000000;stroke-width:3.5;stroke-linecap:square;stroke-linejoin:miter;stroke-miterlimit:4;stroke-dasharray:none;stroke-opacity:1"
         sodipodi:nodetypes="cc" />
    </g>
    <text
       xml:space="preserve"
       style="font-style:normal;font-weight:normal;font-size:3.52777767px;line-height:4px;font-family:sans-serif;letter-spacing:0px;word-spacing:0px;fill:#000000;fill-opacity:1;stroke:none;stroke-width:0.26458332px;stroke-linecap:butt;stroke-linejoin:miter;stroke-opacity:1"
       x="54.995537"
       y="29.581842"
       id="text2921"><tspan
         sodipodi:role="line"
         id="tspan2919"
         x="54.995537"
         y="29.581842"
         style="line-height:4px;stroke-width:0.26458332px">100n</tspan><tspan
         sodipodi:role="line"
         x="54.995537"
         y="33.581844"
         style="line-height:4px;stroke-width:0.26458332px"
         id="tspan2923">(104)</tspan></text>
    <path
       style="fill:none;fill-opacity:1;stroke:#000000;stroke-width:1;stroke-linecap:square;stroke-linejoin:bevel;stroke-miterlimit:4;stroke-dasharray:none;stroke-dashoffset:0"
       d="M 50.081848,25.707592 V 10.683035"
       id="path2925"
       inkscape:connector-curvature="0" />
    <path
       style="fill:none;fill-opacity:1;stroke:#000000;stroke-width:1;stroke-linecap:square;stroke-linejoin:bevel;stroke-miterlimit:4;stroke-dasharray:none;stroke-dashoffset:0"
       d="M 50.081848,34.968008 V 79.947172"
       id="path2927"
       inkscape:connector-curvature="0"
       sodipodi:nodetypes="cc" />
    <g
       id="g2954"
       transform="translate(-14.363095,-0.56696429)">
      <rect
         y="20.888393"
         x="81.64286"
         height="20.977678"
         width="31.56101"
         id="rect2929"
         style="fill:none;fill-opacity:1;stroke:#000000;stroke-width:1;stroke-linecap:square;stroke-linejoin:bevel;stroke-miterlimit:4;stroke-dasharray:none;stroke-dashoffset:0" />
      <text
         id="text2933"
         y="33.229923"
         x="87.635658"
         style="font-style:normal;font-weight:normal;font-size:5.21196651px;line-height:1.47740781px;font-family:sans-serif;letter-spacing:0px;word-spacing:0px;fill:#000000;fill-opacity:1;stroke:none;stroke-width:0.39089748px;stroke-linecap:butt;stroke-linejoin:miter;stroke-opacity:1"
         xml:space="preserve"><tspan
           style="stroke-width:0.39089748px"
           y="33.229923"
           x="87.635658"
           id="tspan2931"
           sodipodi:role="line">LM317T</tspan></text>
    </g>
    <path
       style="fill:none;fill-opacity:1;stroke:#000000;stroke-width:1;stroke-linecap:square;stroke-linejoin:bevel;stroke-miterlimit:4;stroke-dasharray:none;stroke-dashoffset:0"
       d="m 83.758194,10.500497 v 9.253967"
       id="path2956"
       inkscape:connector-curvature="0" />
    <text
       xml:space="preserve"
       style="font-style:normal;font-weight:normal;font-size:3.52777767px;line-height:1px;font-family:sans-serif;letter-spacing:0px;word-spacing:0px;fill:#000000;fill-opacity:1;stroke:none;stroke-width:0.26458332px;stroke-linecap:butt;stroke-linejoin:miter;stroke-opacity:1"
       x="86.367561"
       y="16.919641"
       id="text2960"><tspan
         sodipodi:role="line"
         id="tspan2958"
         x="86.367561"
         y="16.919641"
         style="stroke-width:0.26458332px">IN</tspan></text>
    <path
       style="fill:none;fill-opacity:1;stroke:#000000;stroke-width:1;stroke-linecap:square;stroke-linejoin:bevel;stroke-miterlimit:4;stroke-dasharray:none;stroke-dashoffset:0"
       d="M 99.029765,30.715772 H 155.26667"
       id="path2962"
       inkscape:connector-curvature="0"
       sodipodi:nodetypes="cc" />
    <text
       xml:space="preserve"
       style="font-style:normal;font-weight:normal;font-size:3.52777767px;line-height:1px;font-family:sans-serif;letter-spacing:0px;word-spacing:0px;fill:#000000;fill-opacity:1;stroke:none;stroke-width:0.26458332px;stroke-linecap:butt;stroke-linejoin:miter;stroke-opacity:1"
       x="106.7325"
       y="28.001038"
       id="text2960-6"><tspan
         sodipodi:role="line"
         id="tspan2958-7"
         x="106.7325"
         y="28.001038"
         style="stroke-width:0.26458332px">OUT</tspan></text>
    <path
       id="path3970-5"
       style="fill:none;stroke:#000000;stroke-width:0.92604166;stroke-linecap:round;stroke-linejoin:bevel;stroke-miterlimit:4;stroke-dasharray:none;stroke-opacity:1"
       d="m 84.099704,73.61041 v -2.77812 l 1.85208,-0.92605 -3.704167,-1.85208 3.704167,-1.85208 -3.704167,-1.85209 3.704167,-1.85208 -3.704167,-1.85208 1.852087,-0.92604 v -2.77813"
       inkscape:connector-curvature="0"
       sodipodi:nodetypes="cccccccccc" />
    <text
       xml:space="preserve"
       style="font-style:normal;font-weight:normal;font-size:3.52777767px;line-height:1px;font-family:sans-serif;letter-spacing:0px;word-spacing:0px;fill:#000000;fill-opacity:1;stroke:none;stroke-width:0.26458332px;stroke-linecap:butt;stroke-linejoin:miter;stroke-opacity:1"
       x="73.848572"
       y="45.765919"
       id="text2960-3"><tspan
         sodipodi:role="line"
         id="tspan2958-5"
         x="73.848572"
         y="45.765919"
         style="stroke-width:0.26458332px">ADJ</tspan></text>
    <text
       xml:space="preserve"
       style="font-style:normal;font-weight:normal;font-size:3.52777767px;line-height:1px;font-family:sans-serif;letter-spacing:0px;word-spacing:0px;fill:#000000;fill-opacity:1;stroke:none;stroke-width:0.26458332px;stroke-linecap:butt;stroke-linejoin:miter;stroke-opacity:1"
       x="88.219635"
       y="66.958031"
       id="text3017"><tspan
         sodipodi:role="line"
         id="tspan3015"
         x="88.219635"
         y="66.958031"
         style="stroke-width:0.26458332px">150</tspan></text>
    <path
       style="fill:none;fill-opacity:1;stroke:#000000;stroke-width:1;stroke-linecap:square;stroke-linejoin:bevel;stroke-miterlimit:4;stroke-dasharray:none;stroke-dashoffset:0"
       d="M 84.099704,56.94166 V 41.488095"
       id="path3019"
       inkscape:connector-curvature="0"
       sodipodi:nodetypes="cc" />
    <path
       id="path3970-6"
       style="fill:none;stroke:#000000;stroke-width:0.92604166;stroke-linecap:round;stroke-linejoin:bevel;stroke-miterlimit:4;stroke-dasharray:none;stroke-opacity:1"
       d="m 115.8686,49.236606 h -2.77813 l -0.92604,-1.852083 -1.85208,3.704167 -1.85209,-3.704167 -1.85208,3.704167 -1.85208,-3.704167 -1.85209,3.704167 -0.92604,-1.852084 h -2.778115"
       inkscape:connector-curvature="0"
       sodipodi:nodetypes="cccccccccc" />
    <text
       xml:space="preserve"
       style="font-style:normal;font-weight:normal;font-size:3.52777767px;line-height:1px;font-family:sans-serif;letter-spacing:0px;word-spacing:0px;fill:#000000;fill-opacity:1;stroke:none;stroke-width:0.26458332px;stroke-linecap:butt;stroke-linejoin:miter;stroke-opacity:1"
       x="103.3765"
       y="45.267857"
       id="text3038"><tspan
         sodipodi:role="line"
         id="tspan3036"
         x="103.3765"
         y="45.267857"
         style="stroke-width:0.26458332px">100</tspan></text>
    <path
       style="fill:none;fill-opacity:1;stroke:#000000;stroke-width:1;stroke-linecap:square;stroke-linejoin:bevel;stroke-miterlimit:4;stroke-dasharray:none;stroke-dashoffset:0"
       d="M 99.199855,49.236606 H 84.288694"
       id="path3040"
       inkscape:connector-curvature="0" />
    <path
       style="fill:none;fill-opacity:1;stroke:#000000;stroke-width:1;stroke-linecap:square;stroke-linejoin:bevel;stroke-miterlimit:4;stroke-dasharray:none;stroke-dashoffset:0"
       d="M 115.8686,49.236606 V 31.061325"
       id="path3042"
       inkscape:connector-curvature="0"
       sodipodi:nodetypes="cc" />
    <text
       xml:space="preserve"
       style="font-style:normal;font-weight:normal;font-size:3.52777767px;line-height:1px;font-family:sans-serif;letter-spacing:0px;word-spacing:0px;fill:#000000;fill-opacity:1;stroke:none;stroke-width:0.26458332px;stroke-linecap:butt;stroke-linejoin:miter;stroke-opacity:1"
       x="108.08642"
       y="67.334274"
       id="text3079"><tspan
         sodipodi:role="line"
         id="tspan3077"
         x="108.08642"
         y="67.334274"
         style="stroke-width:0.26458332px">1u</tspan></text>
    <path
       style="fill:none;fill-opacity:1;stroke:#000000;stroke-width:1;stroke-linecap:square;stroke-linejoin:bevel;stroke-miterlimit:4;stroke-dasharray:none;stroke-dashoffset:0"
       d="m 84.099704,73.61041 0,6.52575"
       id="path3085"
       inkscape:connector-curvature="0"
       sodipodi:nodetypes="cc" />
    <text
       xml:space="preserve"
       style="font-style:normal;font-weight:normal;font-size:3.52777767px;line-height:1px;font-family:sans-serif;letter-spacing:0px;word-spacing:0px;fill:#000000;fill-opacity:1;stroke:none;stroke-width:0.26458332px;stroke-linecap:butt;stroke-linejoin:miter;stroke-opacity:1"
       x="156.40314"
       y="30.799549"
       id="text3089"><tspan
         sodipodi:role="line"
         id="tspan3087"
         x="156.40314"
         y="30.799549"
         style="stroke-width:0.26458332px">Vout</tspan></text>
    <text
       xml:space="preserve"
       style="font-style:normal;font-weight:normal;font-size:3.52777767px;line-height:1px;font-family:sans-serif;letter-spacing:0px;word-spacing:0px;fill:#000000;fill-opacity:1;stroke:none;stroke-width:0.26458332px;stroke-linecap:butt;stroke-linejoin:miter;stroke-opacity:1"
       x="157.27634"
       y="81.748474"
       id="text3089-2"><tspan
         sodipodi:role="line"
         id="tspan3087-9"
         x="157.27634"
         y="81.748474"
         style="stroke-width:0.26458332px">GND</tspan></text>
    <g
       id="g3251"
       transform="translate(0,3.078466)">
      <g
         id="g3179">
        <g
           id="g3141"
           transform="translate(1.5119048,13.040179)">
          <text
             id="text2933-7"
             y="25.808016"
             x="180.26692"
             style="font-style:normal;font-weight:normal;font-size:3.73830128px;line-height:1.05967593px;font-family:sans-serif;letter-spacing:0px;word-spacing:0px;fill:#000000;fill-opacity:1;stroke:none;stroke-width:0.28037259px;stroke-linecap:butt;stroke-linejoin:miter;stroke-opacity:1"
             xml:space="preserve"><tspan
               style="stroke-width:0.28037259px"
               y="25.808016"
               x="180.26692"
               id="tspan2931-0"
               sodipodi:role="line">LM317T</tspan></text>
          <rect
             y="13.895833"
             x="176.70386"
             height="21.166666"
             width="21.166666"
             id="rect3136"
             style="fill:none;fill-opacity:1;stroke:#000000;stroke-width:1;stroke-linecap:square;stroke-linejoin:bevel;stroke-miterlimit:4;stroke-dasharray:none;stroke-dashoffset:0" />
        </g>
        <path
           style="fill:none;fill-opacity:1;stroke:#000000;stroke-width:1;stroke-linecap:square;stroke-linejoin:bevel;stroke-miterlimit:4;stroke-dasharray:none;stroke-dashoffset:0"
           d="M 182.44909,48.102677 V 74.183034"
           id="path3143"
           inkscape:connector-curvature="0" />
        <path
           style="fill:none;fill-opacity:1;stroke:#000000;stroke-width:1;stroke-linecap:square;stroke-linejoin:bevel;stroke-miterlimit:4;stroke-dasharray:none;stroke-dashoffset:0"
           d="M 188.7991,48.102677 V 74.183034"
           id="path3143-9"
           inkscape:connector-curvature="0" />
        <path
           style="fill:none;fill-opacity:1;stroke:#000000;stroke-width:1;stroke-linecap:square;stroke-linejoin:bevel;stroke-miterlimit:4;stroke-dasharray:none;stroke-dashoffset:0"
           d="M 195.14909,48.102677 V 74.183034"
           id="path3143-3"
           inkscape:connector-curvature="0" />
        <rect
           style="fill:none;fill-opacity:1;stroke:#000000;stroke-width:1;stroke-linecap:square;stroke-linejoin:bevel;stroke-miterlimit:4;stroke-dasharray:none;stroke-dashoffset:0"
           id="rect3166"
           width="14.741072"
           height="14.741072"
           x="181.42856"
           y="12.253273" />
        <circle
           style="fill:none;fill-opacity:1;stroke:#000000;stroke-width:1;stroke-linecap:square;stroke-linejoin:bevel;stroke-miterlimit:4;stroke-dasharray:none;stroke-dashoffset:0"
           id="path3168"
           cx="188.79909"
           cy="19.62381"
           r="3.4410951" />
      </g>
      <text
         id="text2960-6-6"
         y="78.959366"
         x="186.1568"
         style="font-style:normal;font-weight:normal;font-size:3.52777767px;line-height:1px;font-family:sans-serif;letter-spacing:0px;word-spacing:0px;fill:#000000;fill-opacity:1;stroke:none;stroke-width:0.26458332px;stroke-linecap:butt;stroke-linejoin:miter;stroke-opacity:1"
         xml:space="preserve"><tspan
           style="stroke-width:0.26458332px"
           y="78.959366"
           x="186.1568"
           id="tspan2958-7-0"
           sodipodi:role="line">OUT</tspan></text>
      <text
         id="text2960-62"
         y="61.987751"
         x="197.2355"
         style="font-style:normal;font-weight:normal;font-size:3.52777767px;line-height:1px;font-family:sans-serif;letter-spacing:0px;word-spacing:0px;fill:#000000;fill-opacity:1;stroke:none;stroke-width:0.26458332px;stroke-linecap:butt;stroke-linejoin:miter;stroke-opacity:1"
         xml:space="preserve"><tspan
           style="stroke-width:0.26458332px"
           y="61.987751"
           x="197.2355"
           id="tspan2958-6"
           sodipodi:role="line">IN</tspan></text>
      <text
         id="text2960-3-1"
         y="59.565102"
         x="173.89571"
         style="font-style:normal;font-weight:normal;font-size:3.52777767px;line-height:1px;font-family:sans-serif;letter-spacing:0px;word-spacing:0px;fill:#000000;fill-opacity:1;stroke:none;stroke-width:0.26458332px;stroke-linecap:butt;stroke-linejoin:miter;stroke-opacity:1"
         xml:space="preserve"><tspan
           style="stroke-width:0.26458332px"
           y="59.565102"
           x="173.89571"
           id="tspan2958-5-8"
           sodipodi:role="line">ADJ</tspan></text>
    </g>
  </g>
</svg>
